[
  {
    "id": 1,
    "title": "Игра 1",
    "categories": [1, 2, 4],
    "image": "/assets/1.jpg"
  },
  {
    "id": 2,
    "title": "Игра 2",
    "categories": [1],
    "image": "/assets/2.jpg"
  },
  {
    "id": 3,
    "title": "Игра 3",
    "categories": [2, 6, 4],
    "image": "/assets/3.jpg"
  },
  {
    "id": 4,
    "title": "Игра 4",
    "categories": [3],
    "image": "/assets/1.jpg"
  },
  {
    "id": 5,
    "title": "Игра 5",
    "categories": [4, 2],
    "image": "/assets/2.jpg"
  },
  {
    "id": 6,
    "title": "Игра 6",
    "categories": [6],
    "image": "/assets/3.jpg"
  },
  {
    "id": 7,
    "title": "Игра 7",
    "categories": [5],
    "image": "/assets/1.jpg"
  }
]
